…
Initial guess: Reviews per month / Availability(30). (how many days of the last 30 was this listing available?)

listings_with_occupancy_rate <- listings %>% 
  replace_na(list(reviews_per_month = 0)) %>%
  mutate(occupancy_rate = reviews_per_month/availability_30)

summary(listings_with_occupancy_rate$occupancy_rate)

##    Min. 1st Qu.  Median    Mean 3rd Qu.    Max.    NA's 
##  0.0000  0.0273  0.1485     Inf  1.2722     Inf    1353

arrange(listings_with_occupancy_rate, desc(occupancy_rate)) %>% 
  select(reviews_per_month, availability_30)

## # A tibble: 14,305 x 2
##    reviews_per_month availability_30
##                <dbl>           <int>
##  1              4.74               0
##  2              0.45               0
##  3              0.03               0
##  4              0.15               0
##  5              0.56               0
##  6              0.23               0
##  7              1.97               0
##  8              3.06               0
##  9              0.44               0
## 10              1.06               0
## # ... with 14,295 more rows

Try reviews per month / 30?

listings_with_occupancy_rate <- listings %>% 
  replace_na(list(reviews_per_month = 0)) %>%
  mutate(occupancy_rate = reviews_per_month / 30)

summary(listings_with_occupancy_rate$occupancy_rate)

##    Min. 1st Qu.  Median    Mean 3rd Qu.    Max. 
## 0.00000 0.00300 0.02433 0.04626 0.06667 2.50900

listings_with_occupancy_rate %>% arrange(desc(occupancy_rate))

## # A tibble: 14,305 x 96
##          id                           listing_url   scrape_id last_scraped
##       <int>                                 <chr>       <dbl>       <date>
##  1  4514076  https://www.airbnb.com/rooms/4514076 2.01704e+13   2017-04-03
##  2  3140313  https://www.airbnb.com/rooms/3140313 2.01704e+13   2017-04-04
##  3 13757390 https://www.airbnb.com/rooms/13757390 2.01704e+13   2017-04-04
##  4  6646213  https://www.airbnb.com/rooms/6646213 2.01704e+13   2017-04-04
##  5 17307528 https://www.airbnb.com/rooms/17307528 2.01704e+13   2017-04-03
##  6 16900867 https://www.airbnb.com/rooms/16900867 2.01704e+13   2017-04-03
##  7 17345588 https://www.airbnb.com/rooms/17345588 2.01704e+13   2017-04-03
##  8 13014154 https://www.airbnb.com/rooms/13014154 2.01704e+13   2017-04-03
##  9  4483725  https://www.airbnb.com/rooms/4483725 2.01704e+13   2017-04-04
## 10  5552321  https://www.airbnb.com/rooms/5552321 2.01704e+13   2017-04-03
## # ... with 14,295 more rows, and 92 more variables: name <chr>,
## #   summary <chr>, space <chr>, description <chr>,
## #   experiences_offered <chr>, neighborhood_overview <chr>, notes <chr>,
## #   transit <chr>, access <chr>, interaction <chr>, house_rules <chr>,
## #   thumbnail_url <chr>, medium_url <chr>, picture_url <chr>,
## #   xl_picture_url <chr>, host_id <int>, host_url <chr>, host_name <chr>,
## #   host_since <date>, host_location <chr>, host_about <chr>,
## #   host_response_time <chr>, host_response_rate <chr>,
## #   host_acceptance_rate <chr>, host_is_superhost <chr>,
…
regressions <- listings_clean %>% group_by(city) %>%
  do(fit = lm(log_days_occupied ~ std_price + good_reviews, data = .))

regressions_tidy <- regressions %>% tidy(fit)

regressions_tidy

## # A tibble: 965 x 6
## # Groups:   city [457]
##                                                city             term
##                                               <chr>            <chr>
##  1                         <U+5357><U+96C5><U+62C9>      (Intercept)
##  2                         <U+58A8><U+5C14><U+672C>      (Intercept)
##  3                         <U+58A8><U+5C14><U+672C>        std_price
##  4                         <U+5A01><U+84DD><U+753A>      (Intercept)
##  5 <U+8292><U+7279><U+97E6><U+5F17><U+5229><U+533A>      (Intercept)
##  6                                       Abbotsford      (Intercept)
##  7                                       Abbotsford        std_price
##  8                                       Abbotsford good_reviewsTRUE
##  9                            Abbotsford, Melbourne      (Intercept)
## 10                                     Airport West      (Intercept)
## # ... with 955 more rows, and 4 more variables: estimate <dbl>,
## #   std.error <dbl>, statistic <dbl>, p.value <dbl>
…
