…
estimated_sales <- apply(extract(fit)$predicted_sales, 2, Estimate)

report_data <- tbl_df(test_data) %>%
  mutate(estimated_sales = estimated_sales) %>%
  mutate(estimated_sales_05 = map_dbl(estimated_sales, 
                                      function(x){quantile(x$samples,0.05)})) %>%
  mutate(estimated_sales_mean = map_dbl(estimated_sales,
                                        function(x){mean(x$samples)})) %>%
  mutate(estimated_sales_95 = map_dbl(estimated_sales,
                                      function(x){quantile(x$samples,0.95)}))
         
print(report_data %>% select(sales, estimated_sales_05, estimated_sales_mean, estimated_sales_95))

## # A tibble: 24 x 4
##    sales estimated_sales_05 estimated_sales_mean estimated_sales_95
##    <int>              <dbl>                <dbl>              <dbl>
##  1    51                 36             51.24025                 68
##  2   110                 86            109.70700                135
##  3   138                112            138.16175                165
##  4   430                382            430.16350                480
##  5    47                 32             47.03325                 63
##  6   107                 83            107.08550                132
##  7   133                107            133.05700                161
##  8   455                407            454.77350                505
##  9   107                 84            107.22150                132
## 10   314                274            314.07600                356
## # ... with 14 more rows
…
